{
  "$schema": "http://cyclonedx.org/schema/bom-1.5.schema.json",
  "bomFormat": "CycloneDX",
  "specVersion": "1.5",
  "serialNumber": "urn:uuid:599021f5-8f73-4ae2-810a-c0432713fbb7",
  "version": 1,
  "metadata": {
    "properties": [
      {
        "name": "existing property",
        "value": "I love writing tests"
      }
    ],
    "timestamp": "2023-10-10T12:20:38+00:00",
    "tools": [
      {
        "vendor": "aquasecurity",
        "name": "trivy",
        "version": "0.45.1"
      }
    ],
    "component": {
      "bom-ref": "pkg:oci/photon@sha256%3A9dde4a855e8990238fb228b349f90200020d142533279aacdbf32670283e63ca?arch=amd64\u0026repository_url=index.docker.io%2Flibrary%2Fphoton",
      "type": "container",
      "name": "photon:5.0-20231007",
      "purl": "pkg:oci/photon@sha256%3A9dde4a855e8990238fb228b349f90200020d142533279aacdbf32670283e63ca?arch=amd64\u0026repository_url=index.docker.io%2Flibrary%2Fphoton",
      "properties": [
        {
          "name": "aquasecurity:trivy:DiffID",
          "value": "sha256:3c14976c5d766359eecc370538ef156590c0847dd46fc72298e3d117b034008a"
        },
        {
          "name": "aquasecurity:trivy:ImageID",
          "value": "sha256:e17671b7d250e6bbba09995bb237615ecb9aefe153cfc2e995a81957ca31a7a5"
        },
        {
          "name": "aquasecurity:trivy:RepoDigest",
          "value": "photon@sha256:9dde4a855e8990238fb228b349f90200020d142533279aacdbf32670283e63ca"
        },
        {
          "name": "aquasecurity:trivy:RepoTag",
          "value": "photon:5.0-20231007"
        },
        {
          "name": "aquasecurity:trivy:SchemaVersion",
          "value": "2"
        }
      ]
    }
  },
  "components": [
    {
      "bom-ref": "1f8f4199-df8d-4e6e-b1aa-7e6117a051b9",
      "type": "operating-system",
      "name": "photon",
      "version": "5.0",
      "properties": [
        {
          "name": "aquasecurity:trivy:Class",
          "value": "os-pkgs"
        },
        {
          "name": "aquasecurity:trivy:Type",
          "value": "photon"
        }
      ]
    },
    {
      "bom-ref": "pkg:rpm/photon/bash@5.2-1.ph5?arch=x86_64\u0026distro=photon-5.0",
      "type": "library",
      "supplier": {
        "name": "VMware, Inc."
      },
      "name": "bash",
      "version": "5.2-1.ph5",
      "hashes": [
        {
          "alg": "MD5",
          "content": "57a707ecf96219789f30160210704486"
        }
      ],
      "licenses": [
        {
          "license": {
            "name": "GPLv3"
          }
        }
      ],
      "purl": "pkg:rpm/photon/bash@5.2-1.ph5?arch=x86_64\u0026distro=photon-5.0",
      "properties": [
        {
          "name": "aquasecurity:trivy:LayerDiffID",
          "value": "sha256:3c14976c5d766359eecc370538ef156590c0847dd46fc72298e3d117b034008a"
        },
        {
          "name": "aquasecurity:trivy:LayerDigest",
          "value": "sha256:7c6c4ff0a1fc7e9ed563a97f5befec547333c628fb380ee88c7e772410ac8fd9"
        },
        {
          "name": "aquasecurity:trivy:PkgID",
          "value": "bash@5.2-1.ph5.x86_64"
        },
        {
          "name": "aquasecurity:trivy:PkgType",
          "value": "photon"
        },
        {
          "name": "aquasecurity:trivy:SrcName",
          "value": "bash"
        },
        {
          "name": "aquasecurity:trivy:SrcRelease",
          "value": "1.ph5"
        },
        {
          "name": "aquasecurity:trivy:SrcVersion",
          "value": "5.2"
        }
      ]
    }
  ],
  "dependencies": [
    {
      "ref": "1f8f4199-df8d-4e6e-b1aa-7e6117a051b9",
      "dependsOn": [
        "pkg:rpm/photon/bash@5.2-1.ph5?arch=x86_64\u0026distro=photon-5.0"
      ]
    },
    {
      "ref": "pkg:oci/photon@sha256%3A9dde4a855e8990238fb228b349f90200020d142533279aacdbf32670283e63ca?arch=amd64\u0026repository_url=index.docker.io%2Flibrary%2Fphoton",
      "dependsOn": [
        "1f8f4199-df8d-4e6e-b1aa-7e6117a051b9"
      ]
    },
    {
      "ref": "pkg:rpm/photon/bash@5.2-1.ph5?arch=x86_64\u0026distro=photon-5.0",
      "dependsOn": []
    }
  ],
  "vulnerabilities": []
}
